var itemJsonString1 = 
	'{ "itemArray": '
	+'[	{ '
	+'			  "itemId": "123456" '
	+'			, "parentItemId": "123" '
	+'			, "itemCategory": "BAPS" '
	+'			, "itemTitle": "Satsang Darshan-95th JanmaJayanti" '
	+'			, "technicalQuality": "4" '
	+'			, "technicalNotes": "voice and audio okay " '
	+'			, "eventDateArray": '
	+'			[ '
	+'				{	  "eventStartDateYYYY":"2015", "eventStartDateMM":"12", "eventStartDateDD":"19" '
	+'					, "eventEndDateYYYY":"2015", "eventEndDateMM":"12", "eventEndDateDD":"19" '
	+'				} '
	+'			] '
	+'			, "clipStartTime": "01:30:15" '
	+'			, "clipEndTime": "01:40:45" '
	+'			, "urlOrFileFolderPath": "c:/mediaStorage/2015/12/19" '
	+'			, "fileFolderName": "AGMZ1467.avi" '
	+'			, "itemType": "onlineMedia" '
	+'			, "itemUniqueCode": "bapsSite1Item346" '
	+'			, "itemSource": "HDD-Sarangpur" '
	+'			, "confidentiality": "santo" '
	+'			, "accesssibility": "site" '
	+'			, "language": "gujarati" '
	+'			, "additionalDescp": "1. blah blah blah ~~NewLine~~ 2. blah blah blah ~~NewLine~~ 3. blah blah blah..." '
	+'			, "subjectArray": '
	+'			[ '
	+'				 { "subjectId": "4000", "subjectText": "Panch Vartman", "subjectRank": "4" } '
	+'			] ' 
 	+'			, "keywordLineArray": '
	+'			[ '
	+'				{ '
	+'					  "keywordLineIDArray": [1009,1008,1007,1006,1005,0] '
	+'					, "keywordLineTextArray": ["Obama","doing","dandvat","PramukhSwamiMaharaj","PSM 95th Janmajayanti","Sarangpur YagnapurushVadi"] '
	+'					, "keywordLineRank": "5" '
	+'				} '
	+'			] '
	+'} ]'
	+'}';
